You are now connected to database "lab_clinic" as user "postgres".
DROP TABLE
SELECT 0
COPY 5
                                            llegir_nous_pacients                                            
------------------------------------------------------------------------------------------------------------
 Hi ha hagut algun(s) errors: --> Error DNI invàlid: 1234567W(corresponent a la fila 5 del CSV d'entrada). 
(1 row)

